{
  "files": [
    "**/components/add-to-watchlist-item.js",
    "**/components/column-context-menu.js",
    "**/components/connection-status.js",
    "**/components/custom-watchlist-dialog.js",
    "**/components/link-dropdown-list.js",
    "**/components/more-columns-dropdown.js",
    "**/components/password-change.js",
    "**/components/rename-custom-workspace.js",
    "**/components/renew-subscription.js",
    "**/components/right-panel-collapse.js",
    "**/components/settings-dropdown-list.js",
    "**/components/symbol-summary.js",
    "**/components/tell-a-friend.js",
    "**/components/upgrade-subscription.js",
    "**/chart/components/pie-chart.js",
    "**/chart/pro-chart.js",
    "**/chart/pro-chart-tab.js",
    "**/templates/chart/regular-chart.js",
    "**/layout/footer.js",
    "**/layout/horizontal-navigation.js",
    "**/layout/right-panel-container.js",
    "**/price/widgets/announcement/announcement-list.js",
    "**/price/widgets/announcement/quote-announcement.js",
    "**/price/widgets/time-and-sales/market-time-and-sales.js",
    "**/price/widgets/watch-list/components/watchlist-extended-header.js",
    "**/price/widgets/watch-list/index-watch-list.js",
    "**/price/widgets/watch-list/table-array-proxy.js",
    "**/price/widgets/watch-list/watch-list.js",
    "**/price/widgets/watch-list/watch-list-container.js",
    "**/price/widgets/alert-price.js",
    "**/price/widgets/commodities-overview.js",
    "**/price/widgets/detail-quote.js",
    "**/price/widgets/heatmap.js",
    "**/price/widgets/indices-world-map.js",
    "**/price/widgets/market-depth-summary.js",
    "**/price/widgets/quote-fundamental.js",
    "**/price/widgets/quote-intraday-performance.js",
    "**/price/widgets/quote-summery.js",
    "**/price/widgets/sector-overview.js",
    "**/price/widgets/top-stocks.js",
    "**/top-panel-container-controller.js",
    "**/shared/empty.js",
    "**/view-container-controller.js",
    "**/models/chart/business-entities/tech-study-record.js",
    "**/templates/symbol-popup-summary.js",
    "**/templates/symbol-popup-view.js",
    "**/views/symbol-popup-view.js",
    "**/views/widget-popup-view.js",
    "**/templates/view-container-controller.js",
    "**/views/table/classic-hyperlink-cell.js",
    "**/templates/table/views/hyperlink-cell.js",
    "**/price/widgets/chat.js",
    "**/price/widgets/quote-fields.js",
    "**/templates/price/widgets/option-chain.js",
    "**/templates/price/widgets/watch-list/components/watchlist-header-container.js",
    "**/templates/price/widgets/watch-list/quote-watch-list.js",
    "**/templates/table/views/partial/default-panel.js",
    "**/templates/table/views/partial/favourite-panel.js",
    "**/multi-screen-initializer.js"
  ],

  "paths": [
    "**/custom-workspace/**/*",
    "**/price/containers/*.*",
    "**/price/top-panel/*.*",
    "**/price/widgets/company-profile/**/*"
  ]
}